\BOOKMARK [0][-]{section*.1}{Info}{}
\BOOKMARK [0][-]{section*.2}{Desired employment and Skills}{}
\BOOKMARK [0][-]{section*.3}{Computer Skills}{}
\BOOKMARK [0][-]{section*.4}{Experience}{}
\BOOKMARK [0][-]{section*.5}{Education}{}
\BOOKMARK [0][-]{section*.6}{Languages}{}
\BOOKMARK [0][-]{section*.7}{Interests and Hobbies}{}
