\relax 
\ifx\hyper@anchor\@undefined
\global \let \oldcontentsline\contentsline
\gdef \contentsline#1#2#3#4{\oldcontentsline{#1}{#2}{#3}}
\global \let \oldnewlabel\newlabel
\gdef \newlabel#1#2{\newlabelxx{#1}#2}
\gdef \newlabelxx#1#2#3#4#5#6{\oldnewlabel{#1}{{#2}{#3}}}
\AtEndDocument{\let \contentsline\oldcontentsline
\let \newlabel\oldnewlabel}
\else
\global \let \hyper@last\relax 
\fi

\select@language{croatian}
\@writefile{toc}{\select@language{croatian}}
\@writefile{lof}{\select@language{croatian}}
\@writefile{lot}{\select@language{croatian}}
\@writefile{toc}{\contentsline {part}{Info}{1}{section*.1}}
\@writefile{toc}{\contentsline {part}{Desired employment and Skills}{1}{section*.2}}
\@writefile{toc}{\contentsline {part}{Computer Skills}{1}{section*.3}}
\@writefile{toc}{\contentsline {part}{Experience}{1}{section*.4}}
\@writefile{toc}{\contentsline {part}{Education}{2}{section*.5}}
\@writefile{toc}{\contentsline {part}{Languages}{2}{section*.6}}
\@writefile{toc}{\contentsline {part}{Interests and Hobbies}{3}{section*.7}}
\newlabel{lastpage}{{}{3}{\relax }{section*.7}{}}
